%YAML 1.1
%TAG !u! tag:unity3d.com,2011:
--- !u!1045 &1
EditorBuildSettings:
  m_ObjectHideFlags: 0
  serializedVersion: 2
  m_Scenes:
  - enabled: 0
    path: Assets/Scenes/SampleScene.unity
    guid: 99c9720ab356a0642a771bea13969a05
  - enabled: 1
    path: Assets/JoelBarros/Scenes/Menu_Principal.unity
    guid: b765f37d595dd03429a218bc73a058bd
  - enabled: 1
    path: Assets/JoelBarros/Scenes/Testes_v1.unity
    guid: 19dab4fe4cae3e84c9e41dbd71d38e19
  - enabled: 1
    path: Assets/JoelBarros/Scenes/Mapa.unity
    guid: 3e8c07d72b5fb0840854d4fc340391fa
  m_configObjects: {}
